…
Calculate the mean and median steps per day

    sum_steps %>% group_by(date) %>% summarise (mean = mean(sum), median = median (sum, na.rm = TRUE))

    ## # A tibble: 61 × 3
    ##          date  mean median
    ##        <date> <dbl>  <dbl>
    ## 1  2012-10-01    NA     NA
    ## 2  2012-10-02   126    126
    ## 3  2012-10-03 11352  11352
    ## 4  2012-10-04 12116  12116
    ## 5  2012-10-05 13294  13294
    ## 6  2012-10-06 15420  15420
    ## 7  2012-10-07 11015  11015
    ## 8  2012-10-08    NA     NA
    ## 9  2012-10-09 12811  12811
    ## 10 2012-10-10  9900   9900
    ## # ... with 51 more rows
…
Which 5-minute interval, on average across all the days in the dataset,
contains the maximum number of steps?

    intervals %>% arrange(desc(mean))

    ## # A tibble: 288 × 2
    ##    interval     mean
    ##       <int>    <dbl>
    ## 1       835 206.1698
    ## 2       840 195.9245
    ## 3       850 183.3962
    ## 4       845 179.5660
    ## 5       830 177.3019
    ## 6       820 171.1509
    ## 7       855 167.0189
    ## 8       815 157.5283
    ## 9       825 155.3962
    ## 10      900 143.4528
    ## # ... with 278 more rows
…
